Lab 4
…
# Progress - numerical summary
def1819_progress = def1819 %>%
  group_by(Name) %>%
  summarise(TS_2018 = sum(Tackles_Solo_2018),
            TS_2019 = sum(Tackles_Solo_2019),
            Tackles_Solo_Diff = (TS_2019 - TS_2018)) %>%
  select(Name, Tackles_Solo_Diff) %>%
  arrange(desc(Tackles_Solo_Diff))

## `summarise()` ungrouping output (override with `.groups` argument)

def1819_progress

## # A tibble: 27 x 2
##    Name              Tackles_Solo_Diff
##    <fct>                         <dbl>
##  1 Johnson , Anthony                19
##  2 Vance, O'Rien                    12
##  3 Petersen, Zach                    9
##  4 White, Lawrence                   8
##  5 Akers, Landen                     7
##  6 Azunna, Arnold                    5
##  7 Uwazurike, Eyioma                 3
##  8 Wirtel, Steve                     3
##  9 Johnson, Jamahl                   2
## 10 Lewis, Braxton                    2
## # ... with 17 more rows
…
